{
  "Account.Form.CIN": [
    {
      "type": 0,
      "value": "CIN"
    }
  ],
  "Account.Form.City": [
    {
      "type": 0,
      "value": "City"
    }
  ],
  "Account.Form.Country": [
    {
      "type": 0,
      "value": "Country"
    }
  ],
  "Account.Form.District": [
    {
      "type": 0,
      "value": "District"
    }
  ],
  "Account.Form.Name": [
    {
      "type": 0,
      "value": "Name"
    }
  ],
  "Account.Form.PostCode": [
    {
      "type": 0,
      "value": "PostCode"
    }
  ],
  "Account.Form.Street": [
    {
      "type": 0,
      "value": "Street"
    }
  ],
  "Account.Form.StreetNumber": [
    {
      "type": 0,
      "value": "StreetNumber"
    }
  ],
  "Account.Form.Toast.SuccessBody": [
    {
      "type": 0,
      "value": "Company was successfully deleted"
    }
  ],
  "Account.Form.VAT": [
    {
      "type": 0,
      "value": "VAT"
    }
  ],
  "Account.Form.Website": [
    {
      "type": 0,
      "value": "Website"
    }
  ],
  "Account.Title": [
    {
      "type": 0,
      "value": "Account info"
    }
  ],
  "Address.Form.CityLabel": [
    {
      "type": 0,
      "value": "City"
    }
  ],
  "Address.Form.CityPlaceholder": [
    {
      "type": 0,
      "value": "city..."
    }
  ],
  "General.CountryLabel": [
    {
      "type": 0,
      "value": "Country"
    }
  ],
  "Address.Form.DistrictLabel": [
    {
      "type": 0,
      "value": "District"
    }
  ],
  "Address.Form.DistrictPlaceholder": [
    {
      "type": 0,
      "value": "district..."
    }
  ],
  "Address.Form.PostCodeLabel": [
    {
      "type": 0,
      "value": "Postal code"
    }
  ],
  "Address.Form.PostCodePlaceholder": [
    {
      "type": 0,
      "value": "postal code..."
    }
  ],
  "Address.Form.StreetLabel": [
    {
      "type": 0,
      "value": "Street"
    }
  ],
  "Address.Form.StreetNumberLabel": [
    {
      "type": 0,
      "value": "Street number"
    }
  ],
  "Address.Form.StreetNumberPlaceholder": [
    {
      "type": 0,
      "value": "24"
    }
  ],
  "Address.Form.StreetPlaceholder": [
    {
      "type": 0,
      "value": "street..."
    }
  ],
  "Demand.Create.Title": [
    {
      "type": 0,
      "value": "Create demand post"
    }
  ],
  "Demand.Form.Body": [
    {
      "type": 0,
      "value": "Content"
    }
  ],
  "Demand.Form.Category": [
    {
      "type": 0,
      "value": "Category"
    }
  ],
  "Demand.Form.Company": [
    {
      "type": 0,
      "value": "Company"
    }
  ],
  "Demand.Form.CompanyInfo": [
    {
      "type": 0,
      "value": "Company can be added in a"
    }
  ],
  "Demand.Form.CompanyInfoLink": [
    {
      "type": 0,
      "value": "profile overview"
    }
  ],
  "Demand.Form.ContentPlaceholder": [
    {
      "type": 0,
      "value": "Text..."
    }
  ],
  "Demand.Form.CreateButton": [
    {
      "type": 0,
      "value": "Create demand"
    }
  ],
  "Demand.Form.Title": [
    {
      "type": 0,
      "value": "Title"
    }
  ],
  "Demand.Form.TitlePlaceholder": [
    {
      "type": 0,
      "value": "Title..."
    }
  ],
  "Demand.List.CreateButton": [
    {
      "type": 0,
      "value": "Create demand"
    }
  ],
  "Demand.List.LoadMoreButton": [
    {
      "type": 0,
      "value": "Load more"
    }
  ],
  "Demand.List.Title": [
    {
      "type": 0,
      "value": "List of demand offers"
    }
  ],
  "Error.Message": [
    {
      "type": 0,
      "value": "Oops, something went terribly wrong"
    }
  ],
  "Filter.Title": [
    {
      "type": 0,
      "value": "Filters"
    }
  ],
  "Footer.Language.Czech": [
    {
      "type": 0,
      "value": "Czech"
    }
  ],
  "Footer.Language.English": [
    {
      "type": 0,
      "value": "English"
    }
  ],
  "ForgotPassword.LinkSent": [
    {
      "type": 0,
      "value": "We sent the link to your email"
    }
  ],
  "ForgotPassword.SendLinkButton": [
    {
      "type": 0,
      "value": "Send link"
    }
  ],
  "General.CreateButton": [
    {
      "type": 0,
      "value": "Create"
    }
  ],
  "General.Email": [
    {
      "type": 0,
      "value": "Email"
    }
  ],
  "General.Password": [
    {
      "type": 0,
      "value": "Password"
    }
  ],
  "General.Toast.ErrorBody": [
    {
      "type": 0,
      "value": "An error occured. Please try again later"
    }
  ],
  "General.Toast.ErrorTitle": [
    {
      "type": 0,
      "value": "Error"
    }
  ],
  "General.Toast.SuccessTitle": [
    {
      "type": 0,
      "value": "Success"
    }
  ],
  "Index.Features.EasyUsage.Body": [
    {
      "type": 0,
      "value": "Add your companies in the profile overview and create your offers or demands with ease."
    }
  ],
  "Index.Features.EasyUsage.Title": [
    {
      "type": 0,
      "value": "Easy to use"
    }
  ],
  "Index.Features.FastReach.Body": [
    {
      "type": 0,
      "value": "Quick and easy access to a wide variety of offers, have a contact, or post your offer wthin minutes for free."
    }
  ],
  "Index.Features.FastReach.Title": [
    {
      "type": 0,
      "value": "Reach your goals quick"
    }
  ],
  "Index.Features.Newsletter.Body": [
    {
      "type": 0,
      "value": "Get notifications for your desired category by subscribing to our newsletter."
    }
  ],
  "Index.Features.Newsletter.Title": [
    {
      "type": 0,
      "value": "Customizable newsletter"
    }
  ],
  "Index.Newsletter.SubmitButton": [
    {
      "type": 0,
      "value": "Subscribe"
    }
  ],
  "Index.Newsletter.SuccessMsg": [
    {
      "type": 0,
      "value": "You have been successfuly subscribed to our newsletter!"
    }
  ],
  "Index.Newsletter.Title": [
    {
      "type": 0,
      "value": "Join our newsletter"
    }
  ],
  "Index.Perex.ArrowText": [
    {
      "type": 0,
      "value": "Get started with us"
    }
  ],
  "Index.Perex.Body": [
    {
      "type": 0,
      "value": "Do you have a unused factory space, or are you looking for a place to advertise. Meet your next business or a partner with ease. Browse our lists of demand offers or a list of supply offers and ease the search. Our newsletter feature will inform you of any offers that might interest you."
    }
  ],
  "Index.Perex.DemandButton": [
    {
      "type": 0,
      "value": "Demand list"
    }
  ],
  "Index.Perex.Subtitle": [
    {
      "type": 0,
      "value": "at fingertips"
    }
  ],
  "Index.Perex.SupplyButton": [
    {
      "type": 0,
      "value": "Supply list"
    }
  ],
  "Index.Perex.Title": [
    {
      "type": 0,
      "value": "Your next great business"
    }
  ],
  "Login.ForgotPassword": [
    {
      "type": 0,
      "value": "Forgot password"
    }
  ],
  "Login.LoginButton": [
    {
      "type": 0,
      "value": "Login"
    }
  ],
  "Nav.SignIn": [
    {
      "type": 0,
      "value": "Sign in"
    }
  ],
  "Nav.SignUp": [
    {
      "type": 0,
      "value": "Sign up"
    }
  ],
  "Registrer.RegisterButton": [
    {
      "type": 0,
      "value": "Register"
    }
  ],
  "Supply.Create.Title": [
    {
      "type": 0,
      "value": "Create supply post"
    }
  ],
  "Supply.Form.Body": [
    {
      "type": 0,
      "value": "Content"
    }
  ],
  "Supply.Form.Category": [
    {
      "type": 0,
      "value": "Category"
    }
  ],
  "Supply.Form.Company": [
    {
      "type": 0,
      "value": "Company"
    }
  ],
  "Supply.Form.CompanyInfo": [
    {
      "type": 0,
      "value": "Company can be added in a"
    }
  ],
  "Supply.Form.CompanyInfoLink": [
    {
      "type": 0,
      "value": "profile overview"
    }
  ],
  "Supply.Form.ContentPlaceholder": [
    {
      "type": 0,
      "value": "Text..."
    }
  ],
  "Supply.Form.CreateButton": [
    {
      "type": 0,
      "value": "Create supply"
    }
  ],
  "Supply.Form.Title": [
    {
      "type": 0,
      "value": "Title"
    }
  ],
  "Supply.Form.TitlePlaceholder": [
    {
      "type": 0,
      "value": "Title"
    }
  ],
  "Demand.List.CreateButton": [
    {
      "type": 0,
      "value": "Create supply"
    }
  ],
  "Demand.List.LoadMoreButton": [
    {
      "type": 0,
      "value": "Load more"
    }
  ],
  "Demand.List.Title": [
    {
      "type": 0,
      "value": "List of supply offers"
    }
  ]
}
